{
  "description": "Typeahead API voor de datapunt Amsterdam datasets",
  "organization_name": "Gemeente Amsterdam",
  "service_name": "Typeahead",
  "api_type": "rest_json",
  "api_authentication": "none",
  "environments": [
    {
      "name": "production",
      "api_url": "https://api.data.amsterdam.nl/typeahead/",
      "specification_url": "https://api.data.amsterdam.nl/typeahead/openapi",
      "documentation_url": "https://api.data.amsterdam.nl/api/swagger/?url=/typeahead/openapi"
    }
  ],
  "contact": {
    "email": "datapunt@amsterdam.nl",
    "url": "https://github.com/Amsterdam/typeahead"
  },
  "terms_of_use": {
    "government_only": false,
    "pay_per_use": false,
    "uptime_guarantee": 0,
    "support_response_time": null
  }
}