{
  "description": "Informatie over milieu gerelateerde zaken. Momenteel via deze api enkel explosieven in de stad. Inslagen (met mogelijke blindgangers), gevrijwaarde, verdachte en ondezochte gebieden.",
  "organization_name": "Gemeente Amsterdam",
  "service_name": "Milieuthema's",
  "api_type": "rest_json",
  "api_authentication": "none",
  "environments": [
    {
      "name": "production",
      "api_url": "https://api.data.amsterdam.nl/milieuthemas/",
      "specification_url": "https://api.data.amsterdam.nl/milieuthemas/docs/api-docs/?format=openapi",
      "documentation_url": "https://api.data.amsterdam.nl/api/swagger/?url=/milieuthemas/docs/api-docs/%3Fformat%3Dopenapi"
    }
  ],
  "contact": {
    "email": "datapunt@amsterdam.nl",
    "url": "https://github.com/Amsterdam/milieuthemas"
  },
  "terms_of_use": {
    "government_only": false,
    "pay_per_use": false,
    "uptime_guarantee": 0,
    "support_response_time": null
  }
}