{
  "description": "Een API om objecten uit verschillende andere datasets van de Gemeente Amsterdam mee op te zoeken op basis van een coördinaat en een straal",
  "organization_name": "Gemeente Amsterdam",
  "service_name": "Geosearch",
  "api_type": "rest_json",
  "api_authentication": "none",
  "environments": [
    {
      "name": "production",
      "api_url": "https://api.data.amsterdam.nl/geosearch/",
      "specification_url": "https://api.data.amsterdam.nl/geosearch/docs/geosearch.yml",
      "documentation_url": "https://api.data.amsterdam.nl/api/swagger/?url=/geosearch/docs/geosearch.yml"
    }
  ],
  "contact": {
    "email": "datapunt@amsterdam.nl",
    "url": "https://github.com/Amsterdam/geosearch"
  },
  "terms_of_use": {
    "government_only": false,
    "pay_per_use": false,
    "uptime_guarantee": 0,
    "support_response_time": null
  }
}