{
    "description": "Voor data.overheid.nl is een API beschikbaar die de metadata van alle aanwezige datasets beschikbaar stelt. Alle informatie op data.overheid.nl is her te gebruiken onder de CC-0 licentie.",
    "organization_name": "KOOP",
    "service_name": "data.overheid.nl",
    "api_type": "unknown",
    "api_authentication": "none",
    "environments": [
        {
            "name": "production",
            "api_url": "https://data.overheid.nl/data/api/3/",
            "specification_url": "",
            "documentation_url": "https://docs.ckan.org/en/latest/api/index.html"
        }
    ],
    "contact": {
        "email": "opendata@overheid.nl",
        "phone": "+31 70 7000 526",
        "url": "https://data.overheid.nl/ondersteuning/algemeen/contact"
    },
    "terms_of_use": {
        "government_only": false,
        "pay_per_use": false,
        "uptime_guarantee": 0,
        "support_response_time": null
    }
}
