{
    "description": "De referentieimplementatie van de zaaktypecatalogus.",
    "organization_name": "VNG Realisatie",
    "service_name": "Zaaktypecatalogus (ZTC)",
    "api_type": "rest_json",
    "api_authentication": "unknown",
    "tags": ["zgw", "ztc", "zaakgericht werken", "zaaktypecatalogus"],
    "is_reference_implementation": true,
    "environments": [{
        "name": "production",
        "api_url": "https://catalogi-api.vng.cloud/api/v1/",
        "specification_url": "https://catalogi-api.vng.cloud/api/v1/schema/openapi.json",
        "documentation_url": "https://catalogi-api.vng.cloud/"
    }],
    "contact": {
        "email": "standaarden.ondersteuning@vng.nl"
    },
    "terms_of_use": {
        "government_only": false,
        "pay_per_use": false
    }
}
