module gitlab.com/commonground/developer.overheid.nl/validate

require (
	github.com/davecgh/go-spew v1.1.1 // indirect
	github.com/jessevdk/go-flags v1.4.0
	github.com/kr/pretty v0.1.0 // indirect
	github.com/stretchr/testify v1.4.0
	gopkg.in/check.v1 v1.0.0-20180628173108-788fd7840127 // indirect
)

go 1.14
